{
    "ANSIBLE_MODULE_ARGS": {
        "state": "present",
        "user_name": "foo",
        "user_email": "dohlemacher@infinidat.com",
        "user_password": "123456",
		"user_role": "pool_admin",
        "user_pool": "PSUS_ANSIBLE_pool",
        "system": "172.20.68.167",
        "user": "admin",
        "password": "123456"
    }
}
