{
    "ANSIBLE_MODULE_ARGS": {
        "ibox_serial": "30368",
        "ibox_url": "172.20.68.167",
        "ibox_readonly_user": "david-ro",
        "ibox_readonly_password": "123456",

        "imx_system": "infinimetrics-vc6",
        "imx_user": "IMX_ADMIN",
        "imx_password": "nfinidat1",

        "state": "present",
        "system": "172.20.68.167",
        "user": "admin",
        "password": "123456" 
    }
}
