{
    "ANSIBLE_MODULE_ARGS": {
        "object_name": "PSUS_ANSIBLE_pool",
		"object_type": "pool",
        "key": "foo",
        "state": "stat",
        "system": "172.20.68.167",
        "user": "admin",
        "password": "123456" 
    }
}
