{
    "ANSIBLE_MODULE_ARGS": {
        "name": "PSUS_ANSIBLE_cluster",
        "cluster_hosts": [
            {
                "host_name": "PSUS_ANSIBLE_host",
                "host_cluster_state": "present"
            }
        ],
        "state": "present",
        "system": "172.20.68.167",
        "user": "admin",
        "password": "123456" 
    }
}
