{
    "ANSIBLE_MODULE_ARGS": {
		"name": "PSUS_ANSIBLE_fs",
        "fs_type": "master",
        "pool": "PSUS_ANSIBLE_pool",
        "state": "stat",
        "system": "172.20.68.167",
        "user": "admin",
        "password": "123456" 
    }
}
