{
    "ANSIBLE_MODULE_ARGS": {
        "ibox_serial": "30368",

        "imx_system": "infinimetrics-vc6",
        "imx_user": "IMX_ADMIN",
        "imx_password": "nfinidat1",
        
        "state": "absent",
        "system": "172.20.68.167",
        "user": "admin",
        "password": "123456" 
    }
}
