{
    "ANSIBLE_MODULE_ARGS": {
        "name": "PSUS_ANSIBLE_vol",
        "state": "stat",
        "volume_type": "master",

        "system": "172.20.68.167",
        "user": "admin",
        "password": "123456" 
    }
}
